hw3-p2
…
Q.4 Summarize the median and mean of ROAS by genders when campaign_id == 1178.

kag_csv %>%
    select(interest, Total_Conversion, Approved_Conversion, Spent, gender, campaign_id) %>% 
    filter(campaign_id == 1178) %>% 
    mutate(Gender = factor(gender)) %>% 
    mutate(ROAS = calculate_ROAS(Total_Conversion, Approved_Conversion, Spent)) %>%
    filter(is.finite(ROAS)) %>%
    group_by(interest,gender) %>%
    summarise(Mean=mean(ROAS),Median=median(ROAS))

## # A tibble: 80 x 4
## # Groups:   interest [40]
##    interest gender  Mean Median
##       <int>  <int> <dbl>  <dbl>
##  1        2      0 216.    85.2
##  2        2      1 476.   142. 
##  3        7      0 266.   186. 
##  4        7      1  97.5   45.2
##  5       10      0 120.   103. 
##  6       10      1  91.0   56.5
##  7       15      0 496.   164. 
##  8       15      1 341.   119. 
##  9       16      0 235.   113. 
## 10       16      1  96.7   66.1
## # ... with 70 more rows
…
#Let's retrieve the 4 highest correlated variables to use for the logistic regression
adv_csv_corr_tbl

## # A tibble: 32 x 3
##    feature                  bin             correlation
##    <fct>                    <chr>                 <dbl>
##  1 Clicked.on.Ad            0                    -1    
##  2 Clicked.on.Ad            1                     1    
##  3 Daily.Time.Spent.on.Site -Inf_47.23            0.502
##  4 Daily.Internet.Usage     -Inf_132.366          0.5  
##  5 Daily.Internet.Usage     132.366_163.44        0.445
##  6 Daily.Internet.Usage     224.836_Inf          -0.44 
##  7 Daily.Time.Spent.on.Site 79.982_Inf           -0.42 
##  8 Area.Income              -Inf_43644.412        0.41 
##  9 Daily.Internet.Usage     198.948_224.836      -0.41 
## 10 Daily.Time.Spent.on.Site 47.23_62.26           0.395
## # ... with 22 more rows
…
